{
    "borrows_history": [
        {
            "id": "1",
            "start_date": "15/02/2021",
            "end_date": "15/03/2021",
            "list_book_id": ["1","2","8"],
            "customer_id": "6"
        },
        {
            "id": "2",
            "start_date": "23/05/2021",
            "end_date": "23/06/2021",
            "list_book_id": ["3","1","7"],
            "customer_id": "4"
        },
        {
            "id": "3",
            "start_date": "05/06/2021",
            "end_date": "05/07/2021",
            "list_book_id": [
                "5",
                "2",
                "6"
            ],
            "customer_id": "3"
        },
        {
            "id": "4",
            "start_date": "12/06/2021",
            "end_date": "12/07/2021",
            "list_book_id": [
                "2",
                "6",
                "7"
            ],
            "customer_id": "8"
        },
        {
            "id": "5",
            "start_date": "30/06/2021",
            "end_date": "30/07/2021",
            "list_book_id": [
                "7",
                "1",
                "3",
                "4"
            ],
            "customer_id": "7"
        },
        {
            "id": "6",
            "start_date": "08/07/2021",
            "end_date": "08/08/2021",
            "list_book_id": [
                "2",
                "7"
            ],
            "customer_id": "10"
        },
        {
            "id": "7",
            "start_date": "22/08/2021",
            "end_date": "22/09/2021",
            "list_book_id": [
                "4",
                "2"
            ],
            "customer_id": "6"
        },
        {
            "id": "8",
            "start_date": "09/10/2021",
            "end_date": "09/11/2021",
            "list_book_id": [
                "5"
            ],
            "customer_id": "5"
        },
        {
            "id": "9",
            "start_date": "23/10/2021",
            "end_date": "23/11/2021",
            "list_book_id": [
                "7",
                "9"
            ],
            "customer_id": "6"
        },
        {
            "id": "10",
            "start_date": "30/11/2021",
            "end_date": "30/12/2021",
            "list_book_id": [
                "1"
            ],
            "customer_id": "2"
        },
        {
            "id": "12",
            "start_date": "05/12/2021",
            "end_date": "02/01/2022",
            "list_book_id": [
                "4"
            ],
            "customer_id": "7"
        },
        {
            "id": "12",
            "start_date": "06/12/2021",
            "end_date": "03/01/2022",
            "list_book_id": [
                "5"
            ],
            "customer_id": "1"
        },
        {
            "id": "13",
            "start_date": "06/12/2021",
            "end_date": "03/01/2022",
            "list_book_id": [
                "5",
                "2",
                "7"
            ],
            "customer_id": "4"
        },
        {
            "id": "14",
            "start_date": "07/12/2021",
            "end_date": "04/01/2022",
            "list_book_id": [
                "4"
            ],
            "customer_id": "4"
        },
        {
            "id": "15",
            "start_date": "07/12/2021",
            "end_date": "04/01/2022",
            "list_book_id": [
                "6"
            ],
            "customer_id": "7"
        },
        {
            "id": "16",
            "start_date": "07/12/2021",
            "end_date": "04/01/2022",
            "list_book_id": [
                "5"
            ],
            "customer_id": "6"
        },
        {
            "id": "17",
            "start_date": "07/12/2021",
            "end_date": "04/01/2022",
            "list_book_id": [
                "3"
            ],
            "customer_id": "4"
        },
        {
            "id": "18",
            "start_date": "07/12/2021",
            "end_date": "04/01/2022",
            "list_book_id": [
                "3"
            ],
            "customer_id": "6"
        },
        {
            "id": "19",
            "start_date": "07/12/2021",
            "end_date": "04/01/2022",
            "list_book_id": [
                "4"
            ],
            "customer_id": "5"
        },
        {
            "id": "20",
            "start_date": "07/12/2021",
            "end_date": "04/01/2022",
            "list_book_id": [
                "5"
            ],
            "customer_id": "6"
        },
        {
            "id": "21",
            "start_date": "07/12/2021",
            "end_date": "04/01/2022",
            "list_book_id": [
                "4"
            ],
            "customer_id": "4"
        },
        {
            "id": "22",
            "start_date": "07/12/2021",
            "end_date": "04/01/2022",
            "list_book_id": [
                "4"
            ],
            "customer_id": "5"
        },
        {
            "id": "23",
            "start_date": "07/12/2021",
            "end_date": "04/01/2022",
            "list_book_id": [
                "4"
            ],
            "customer_id": "7"
        },
        {
            "id": "24",
            "start_date": "07/12/2021",
            "end_date": "04/01/2022",
            "list_book_id": [
                "4"
            ],
            "customer_id": "6"
        },
        {
            "id": "25",
            "start_date": "07/12/2021",
            "end_date": "04/01/2022",
            "list_book_id": [
                "4"
            ],
            "customer_id": "5"
        },
        {
            "id": "26",
            "start_date": "07/12/2021",
            "end_date": "04/01/2022",
            "list_book_id": [
                "3"
            ],
            "customer_id": "6"
        },
        {
            "id": "27",
            "start_date": "07/12/2021",
            "end_date": "04/01/2022",
            "list_book_id": [
                "3"
            ],
            "customer_id": "5"
        },
        {
            "id": "28",
            "start_date": "07/12/2021",
            "end_date": "04/01/2022",
            "list_book_id": [
                "5"
            ],
            "customer_id": "4"
        },
        {
            "id": "29",
            "start_date": "07/12/2021",
            "end_date": "04/01/2022",
            "list_book_id": [
                "2"
            ],
            "customer_id": "7"
        },
        {
            "id": "30",
            "start_date": "07/12/2021",
            "end_date": "04/01/2022",
            "list_book_id": [
                "5"
            ],
            "customer_id": "4"
        },
        {
            "id": "31",
            "start_date": "07/12/2021",
            "end_date": "04/01/2022",
            "list_book_id": [
                "5"
            ],
            "customer_id": "4"
        },
        {
            "id": "32",
            "start_date": "07/12/2021",
            "end_date": "04/01/2022",
            "list_book_id": [
                "3"
            ],
            "customer_id": "6"
        },
        {
            "id": "33",
            "start_date": "07/12/2021",
            "end_date": "04/01/2022",
            "list_book_id": [
                "2"
            ],
            "customer_id": "5"
        },
        {
            "id": "34",
            "start_date": "07/12/2021",
            "end_date": "04/01/2022",
            "list_book_id": [
                "1",
                "7",
                "6"
            ],
            "customer_id": "7"
        },
        {
            "id": "35",
            "start_date": "07/12/2021",
            "end_date": "04/01/2022",
            "list_book_id": [
                "4",
                "5"
            ],
            "customer_id": "4"
        }
    ]
}