{
    "employees": [
        {
            "id": "1",
            "lastname": "Floury",
            "firstname": "Mathieu",
            "mail": "mathieu.floury@wanadoo.fr",
            "role": "manager",
            "username": "Mathieu Floury"
        },
        {
            "id": "2",
            "lastname": "Potter",
            "firstname": "Harry",
            "mail": "2 rue Poudlard",
            "role": false,
            "username": "123456789"
        },
        {
            "id": "3",
            "lastname": "Jos\u00e9phine",
            "firstname": "Baker",
            "mail": "josephine.baker@gmail.com",
            "role": true,
            "username": "Baker Jos\u00e9phine"
        },
        {
            "id": "4",
            "lastname": "Mouse",
            "firstname": "Minnie",
            "mail": "minnie.mouse@gmail.com",
            "role": false,
            "username": "Minnie Mouse"
        },
        {
            "id": "6",
            "lastname": "Mouse",
            "firstname": "Pluto",
            "mail": "sdzd",
            "role": false,
            "username": "Pluto Mouse"
        }
    ]
}